simulation/qsim/mcp2515.msim.vcd
$comment
	File created using the following command:
		vcd file mcp2515.msim.vcd -direction
$end
$date
	Fri Oct 02 09:50:40 2020
$end
$version
	ModelSim Version 10.3d
$end
$timescale
	1ps
$end

$scope module mcp2515_vlg_vec_tst $end
$var reg 1 ! clk50 $end
$var reg 1 " rst_n $end
$var wire 1 # cs $end
$var wire 1 $ sck $end
$var wire 1 % si $end
$var wire 1 & tx_empty $end
$var wire 1 ' sampler $end

$scope module i1 $end
$var wire 1 ( gnd $end
$var wire 1 ) vcc $end
$var wire 1 * unknown $end
$var tri1 1 + devclrn $end
$var tri1 1 , devpor $end
$var tri1 1 - devoe $end
$var wire 1 . cs~output_o $end
$var wire 1 / si~output_o $end
$var wire 1 0 sck~output_o $end
$var wire 1 1 tx_empty~output_o $end
$var wire 1 2 clk50~input_o $end
$var wire 1 3 clk50~inputclkctrl_outclk $end
$var wire 1 4 WideOr2~0_combout $end
$var wire 1 5 da~8_combout $end
$var wire 1 6 always2~0_combout $end
$var wire 1 7 tx_flag~1_combout $end
$var wire 1 8 tx_flag~2_combout $end
$var wire 1 9 rst_n~input_o $end
$var wire 1 : rst_n~inputclkctrl_outclk $end
$var wire 1 ; tx_flag~q $end
$var wire 1 < always2~4_combout $end
$var wire 1 = state~8_combout $end
$var wire 1 > state~9_combout $end
$var wire 1 ? state~10_combout $end
$var wire 1 @ state[1]~5_combout $end
$var wire 1 A state[1]~6_combout $end
$var wire 1 B state[0]~0_combout $end
$var wire 1 C Add1~0_combout $end
$var wire 1 D mscount[15]~0_combout $end
$var wire 1 E Add1~1 $end
$var wire 1 F Add1~2_combout $end
$var wire 1 G Add1~3 $end
$var wire 1 H Add1~4_combout $end
$var wire 1 I Add1~5 $end
$var wire 1 J Add1~6_combout $end
$var wire 1 K Add1~7 $end
$var wire 1 L Add1~8_combout $end
$var wire 1 M mscount~5_combout $end
$var wire 1 N Add1~9 $end
$var wire 1 O Add1~10_combout $end
$var wire 1 P Add1~11 $end
$var wire 1 Q Add1~12_combout $end
$var wire 1 R mscount~6_combout $end
$var wire 1 S Add1~13 $end
$var wire 1 T Add1~14_combout $end
$var wire 1 U Add1~15 $end
$var wire 1 V Add1~16_combout $end
$var wire 1 W mscount~4_combout $end
$var wire 1 X Add1~17 $end
$var wire 1 Y Add1~18_combout $end
$var wire 1 Z mscount~3_combout $end
$var wire 1 [ Add1~19 $end
$var wire 1 \ Add1~20_combout $end
$var wire 1 ] Add1~21 $end
$var wire 1 ^ Add1~22_combout $end
$var wire 1 _ Equal2~1_combout $end
$var wire 1 ` Add1~23 $end
$var wire 1 a Add1~24_combout $end
$var wire 1 b Add1~25 $end
$var wire 1 c Add1~26_combout $end
$var wire 1 d Add1~27 $end
$var wire 1 e Add1~28_combout $end
$var wire 1 f mscount~2_combout $end
$var wire 1 g Add1~29 $end
$var wire 1 h Add1~30_combout $end
$var wire 1 i mscount~1_combout $end
$var wire 1 j Equal2~0_combout $end
$var wire 1 k Equal2~3_combout $end
$var wire 1 l Equal2~2_combout $end
$var wire 1 m Equal2~4_combout $end
$var wire 1 n state[0]~1_combout $end
$var wire 1 o state[1]~7_combout $end
$var wire 1 p Mux0~0_combout $end
$var wire 1 q state~11_combout $end
$var wire 1 r Decoder1~2_combout $end
$var wire 1 s init~0_combout $end
$var wire 1 t init~q $end
$var wire 1 u tx_flag~0_combout $end
$var wire 1 v state[0]~2_combout $end
$var wire 1 w state[0]~3_combout $end
$var wire 1 x state[0]~4_combout $end
$var wire 1 y Decoder1~1_combout $end
$var wire 1 z c_count~0_combout $end
$var wire 1 { c_count~1_combout $end
$var wire 1 | clk_count[0]~9_combout $end
$var wire 1 } clk_count[7]~25 $end
$var wire 1 ~ clk_count[8]~26_combout $end
$var wire 1 !! Equal1~0_combout $end
$var wire 1 "! Equal1~1_combout $end
$var wire 1 #! Equal0~0_combout $end
$var wire 1 $! clk_count[3]~11_combout $end
$var wire 1 %! clk_count[0]~10 $end
$var wire 1 &! clk_count[1]~12_combout $end
$var wire 1 '! clk_count[1]~13 $end
$var wire 1 (! clk_count[2]~14_combout $end
$var wire 1 )! clk_count[2]~15 $end
$var wire 1 *! clk_count[3]~16_combout $end
$var wire 1 +! clk_count[3]~17 $end
$var wire 1 ,! clk_count[4]~18_combout $end
$var wire 1 -! clk_count[4]~19 $end
$var wire 1 .! clk_count[5]~20_combout $end
$var wire 1 /! clk_count[5]~21 $end
$var wire 1 0! clk_count[6]~22_combout $end
$var wire 1 1! clk_count[6]~23 $end
$var wire 1 2! clk_count[7]~24_combout $end
$var wire 1 3! Equal5~1_combout $end
$var wire 1 4! Equal5~0_combout $end
$var wire 1 5! Equal5~2_combout $end
$var wire 1 6! c_count~2_combout $end
$var wire 1 7! c_count~9_combout $end
$var wire 1 8! always2~2_combout $end
$var wire 1 9! c_count~3_combout $end
$var wire 1 :! c_count~4_combout $end
$var wire 1 ;! c_count~7_combout $end
$var wire 1 <! always2~1_combout $end
$var wire 1 =! always2~3_combout $end
$var wire 1 >! c_count~8_combout $end
$var wire 1 ?! c_count~10_combout $end
$var wire 1 @! c_count~12_combout $end
$var wire 1 A! c_count~11_combout $end
$var wire 1 B! Equal3~0_combout $end
$var wire 1 C! cc~0_combout $end
$var wire 1 D! Decoder1~0_combout $end
$var wire 1 E! cc_buff~2_combout $end
$var wire 1 F! cc~1_combout $end
$var wire 1 G! cc~q $end
$var wire 1 H! c_count~5_combout $end
$var wire 1 I! c_count~6_combout $end
$var wire 1 J! Equal4~0_combout $end
$var wire 1 K! sc~0_combout $end
$var wire 1 L! sc~1_combout $end
$var wire 1 M! sc~2_combout $end
$var wire 1 N! sc~q $end
$var wire 1 O! da_buff[11]~0_combout $end
$var wire 1 P! da~5_combout $end
$var wire 1 Q! da~6_combout $end
$var wire 1 R! da~7_combout $end
$var wire 1 S! da~q $end
$var wire 1 T! cs~2_combout $end
$var wire 1 U! cs~3_combout $end
$var wire 1 V! cs~reg0_q $end
$var wire 1 W! da_buff[23]~4_combout $end
$var wire 1 X! da_buff[11]~6_combout $end
$var wire 1 Y! da_buff[11]~7_combout $end
$var wire 1 Z! WideOr4~0_combout $end
$var wire 1 [! da_buff[23]~3_combout $end
$var wire 1 \! da_buff~1_combout $end
$var wire 1 ]! da_buff[23]~2_combout $end
$var wire 1 ^! da_buff[22]~9_combout $end
$var wire 1 _! da_buff[21]~11_combout $end
$var wire 1 `! da_buff[17]~19_combout $end
$var wire 1 a! da_buff~29_combout $end
$var wire 1 b! da_buff~32_combout $end
$var wire 1 c! da_buff~34_combout $end
$var wire 1 d! da_buff[7]~38_combout $end
$var wire 1 e! da_buff[0]~47_combout $end
$var wire 1 f! da_buff[0]~48_combout $end
$var wire 1 g! da_buff[0]~49_combout $end
$var wire 1 h! da_buff~46_combout $end
$var wire 1 i! da_buff[11]~31_combout $end
$var wire 1 j! da_buff~45_combout $end
$var wire 1 k! da_buff~44_combout $end
$var wire 1 l! da_buff[4]~43_combout $end
$var wire 1 m! da_buff[5]~42_combout $end
$var wire 1 n! da_buff[6]~40_combout $end
$var wire 1 o! da_buff[6]~41_combout $end
$var wire 1 p! da_buff[7]~39_combout $end
$var wire 1 q! da_buff~36_combout $end
$var wire 1 r! da_buff~37_combout $end
$var wire 1 s! da_buff~35_combout $end
$var wire 1 t! da_buff~33_combout $end
$var wire 1 u! da_buff~30_combout $end
$var wire 1 v! da_buff[12]~28_combout $end
$var wire 1 w! da_buff[13]~27_combout $end
$var wire 1 x! da_buff[14]~25_combout $end
$var wire 1 y! da_buff[14]~26_combout $end
$var wire 1 z! da_buff[15]~23_combout $end
$var wire 1 {! da_buff[15]~24_combout $end
$var wire 1 |! da_buff[16]~21_combout $end
$var wire 1 }! da_buff[16]~22_combout $end
$var wire 1 ~! da_buff[17]~20_combout $end
$var wire 1 !" da_buff[18]~17_combout $end
$var wire 1 "" da_buff[18]~18_combout $end
$var wire 1 #" da_buff[19]~15_combout $end
$var wire 1 $" da_buff[19]~16_combout $end
$var wire 1 %" da_buff[20]~13_combout $end
$var wire 1 &" da_buff[20]~14_combout $end
$var wire 1 '" da_buff[21]~12_combout $end
$var wire 1 (" da_buff[22]~10_combout $end
$var wire 1 )" da_buff[23]~5_combout $end
$var wire 1 *" da_buff[23]~8_combout $end
$var wire 1 +" si~0_combout $end
$var wire 1 ," sc_buff~0_combout $end
$var wire 1 -" sc_buff~2_combout $end
$var wire 1 ." sc_buff~3_combout $end
$var wire 1 /" sc_buff~4_combout $end
$var wire 1 0" sc_buff~5_combout $end
$var wire 1 1" sc_buff~17_combout $end
$var wire 1 2" sc_buff~16_combout $end
$var wire 1 3" sc_buff~22_combout $end
$var wire 1 4" sc_buff~23_combout $end
$var wire 1 5" sc_buff~24_combout $end
$var wire 1 6" sc_buff~25_combout $end
$var wire 1 7" sc_buff~28_combout $end
$var wire 1 8" sc_buff~29_combout $end
$var wire 1 9" sc_buff~30_combout $end
$var wire 1 :" sc_buff~31_combout $end
$var wire 1 ;" sc_buff~34_combout $end
$var wire 1 <" sc_buff~41_combout $end
$var wire 1 =" sc_buff~43_combout $end
$var wire 1 >" sc_buff~40_combout $end
$var wire 1 ?" sc_buff~49_combout $end
$var wire 1 @" sc_buff~50_combout $end
$var wire 1 A" Mux18~3_combout $end
$var wire 1 B" Mux18~2_combout $end
$var wire 1 C" Mux18~4_combout $end
$var wire 1 D" sc_buff~51_combout $end
$var wire 1 E" sc_buff~47_combout $end
$var wire 1 F" sc_buff~48_combout $end
$var wire 1 G" sc_buff[14]~19_combout $end
$var wire 1 H" sc_buff[14]~20_combout $end
$var wire 1 I" sc_buff[14]~21_combout $end
$var wire 1 J" sc_buff~45_combout $end
$var wire 1 K" sc_buff~46_combout $end
$var wire 1 L" sc_buff~44_combout $end
$var wire 1 M" sc_buff~42_combout $end
$var wire 1 N" sc_buff~38_combout $end
$var wire 1 O" sc_buff~39_combout $end
$var wire 1 P" sc_buff~36_combout $end
$var wire 1 Q" sc_buff~37_combout $end
$var wire 1 R" sc_buff~35_combout $end
$var wire 1 S" sc_buff~32_combout $end
$var wire 1 T" sc_buff~33_combout $end
$var wire 1 U" sc_buff~26_combout $end
$var wire 1 V" sc_buff~27_combout $end
$var wire 1 W" sc_buff~18_combout $end
$var wire 1 X" sc_buff~1_combout $end
$var wire 1 Y" sc_buff~15_combout $end
$var wire 1 Z" sc_buff~14_combout $end
$var wire 1 [" sc_buff~12_combout $end
$var wire 1 \" sc_buff~13_combout $end
$var wire 1 ]" sc_buff~11_combout $end
$var wire 1 ^" sc_buff~10_combout $end
$var wire 1 _" sc_buff~9_combout $end
$var wire 1 `" sc_buff~8_combout $end
$var wire 1 a" sc_buff~7_combout $end
$var wire 1 b" sc_buff~6_combout $end
$var wire 1 c" si~1_combout $end
$var wire 1 d" cc_buff~18_combout $end
$var wire 1 e" cc_buff~6_combout $end
$var wire 1 f" cc_buff~7_combout $end
$var wire 1 g" cc_buff~3_combout $end
$var wire 1 h" cc_buff~16_combout $end
$var wire 1 i" cc_buff~17_combout $end
$var wire 1 j" cc_buff~4_combout $end
$var wire 1 k" cc_buff~15_combout $end
$var wire 1 l" cc_buff~14_combout $end
$var wire 1 m" cc_buff~13_combout $end
$var wire 1 n" cc_buff~12_combout $end
$var wire 1 o" cc_buff~11_combout $end
$var wire 1 p" Equal3~1_combout $end
$var wire 1 q" cc_buff~8_combout $end
$var wire 1 r" cc_buff~9_combout $end
$var wire 1 s" cc_buff~10_combout $end
$var wire 1 t" cc_buff~5_combout $end
$var wire 1 u" Equal1~2_combout $end
$var wire 1 v" si~reg0_q $end
$var wire 1 w" sck~0_combout $end
$var wire 1 x" sck~reg0_q $end
$var wire 1 y" tx_empty~0_combout $end
$var wire 1 z" tx_empty~reg0_q $end
$var wire 1 {" clk_count [8] $end
$var wire 1 |" clk_count [7] $end
$var wire 1 }" clk_count [6] $end
$var wire 1 ~" clk_count [5] $end
$var wire 1 !# clk_count [4] $end
$var wire 1 "# clk_count [3] $end
$var wire 1 ## clk_count [2] $end
$var wire 1 $# clk_count [1] $end
$var wire 1 %# clk_count [0] $end
$var wire 1 &# sc_buff [23] $end
$var wire 1 '# sc_buff [22] $end
$var wire 1 (# sc_buff [21] $end
$var wire 1 )# sc_buff [20] $end
$var wire 1 *# sc_buff [19] $end
$var wire 1 +# sc_buff [18] $end
$var wire 1 ,# sc_buff [17] $end
$var wire 1 -# sc_buff [16] $end
$var wire 1 .# sc_buff [15] $end
$var wire 1 /# sc_buff [14] $end
$var wire 1 0# sc_buff [13] $end
$var wire 1 1# sc_buff [12] $end
$var wire 1 2# sc_buff [11] $end
$var wire 1 3# sc_buff [10] $end
$var wire 1 4# sc_buff [9] $end
$var wire 1 5# sc_buff [8] $end
$var wire 1 6# sc_buff [7] $end
$var wire 1 7# sc_buff [6] $end
$var wire 1 8# sc_buff [5] $end
$var wire 1 9# sc_buff [4] $end
$var wire 1 :# sc_buff [3] $end
$var wire 1 ;# sc_buff [2] $end
$var wire 1 <# sc_buff [1] $end
$var wire 1 =# sc_buff [0] $end
$var wire 1 ># c_count [4] $end
$var wire 1 ?# c_count [3] $end
$var wire 1 @# c_count [2] $end
$var wire 1 A# c_count [1] $end
$var wire 1 B# c_count [0] $end
$var wire 1 C# da_buff [23] $end
$var wire 1 D# da_buff [22] $end
$var wire 1 E# da_buff [21] $end
$var wire 1 F# da_buff [20] $end
$var wire 1 G# da_buff [19] $end
$var wire 1 H# da_buff [18] $end
$var wire 1 I# da_buff [17] $end
$var wire 1 J# da_buff [16] $end
$var wire 1 K# da_buff [15] $end
$var wire 1 L# da_buff [14] $end
$var wire 1 M# da_buff [13] $end
$var wire 1 N# da_buff [12] $end
$var wire 1 O# da_buff [11] $end
$var wire 1 P# da_buff [10] $end
$var wire 1 Q# da_buff [9] $end
$var wire 1 R# da_buff [8] $end
$var wire 1 S# da_buff [7] $end
$var wire 1 T# da_buff [6] $end
$var wire 1 U# da_buff [5] $end
$var wire 1 V# da_buff [4] $end
$var wire 1 W# da_buff [3] $end
$var wire 1 X# da_buff [2] $end
$var wire 1 Y# da_buff [1] $end
$var wire 1 Z# da_buff [0] $end
$var wire 1 [# cc_buff [7] $end
$var wire 1 \# cc_buff [6] $end
$var wire 1 ]# cc_buff [5] $end
$var wire 1 ^# cc_buff [4] $end
$var wire 1 _# cc_buff [3] $end
$var wire 1 `# cc_buff [2] $end
$var wire 1 a# cc_buff [1] $end
$var wire 1 b# cc_buff [0] $end
$var wire 1 c# state [3] $end
$var wire 1 d# state [2] $end
$var wire 1 e# state [1] $end
$var wire 1 f# state [0] $end
$var wire 1 g# mscount [15] $end
$var wire 1 h# mscount [14] $end
$var wire 1 i# mscount [13] $end
$var wire 1 j# mscount [12] $end
$var wire 1 k# mscount [11] $end
$var wire 1 l# mscount [10] $end
$var wire 1 m# mscount [9] $end
$var wire 1 n# mscount [8] $end
$var wire 1 o# mscount [7] $end
$var wire 1 p# mscount [6] $end
$var wire 1 q# mscount [5] $end
$var wire 1 r# mscount [4] $end
$var wire 1 s# mscount [3] $end
$var wire 1 t# mscount [2] $end
$var wire 1 u# mscount [1] $end
$var wire 1 v# mscount [0] $end
$upscope $end
$upscope $end
$enddefinitions $end
#0
$dumpvars
0!
0"
0#
0$
0%
1&
x'
0(
1)
x*
1+
1,
1-
0.
0/
00
11
02
03
04
15
16
07
08
09
0:
0;
0<
0=
0>
0?
1@
0A
0B
1C
0D
0E
0F
1G
0H
0I
0J
1K
0L
0M
0N
0O
1P
0Q
0R
0S
0T
1U
0V
0W
0X
0Y
0Z
1[
0\
0]
0^
1_
1`
0a
0b
0c
1d
0e
0f
0g
0h
0i
1j
1k
1l
1m
0n
1o
0p
0q
0r
0s
0t
0u
0v
1w
0x
1y
1z
1{
1|
1}
0~
0!!
0"!
1#!
1$!
0%!
0&!
1'!
0(!
0)!
0*!
1+!
0,!
0-!
0.!
1/!
00!
01!
02!
03!
04!
05!
06!
07!
08!
19!
0:!
0;!
0<!
0=!
0>!
0?!
0@!
0A!
0B!
0C!
0D!
0E!
1F!
0G!
1H!
0I!
1J!
0K!
0L!
0M!
0N!
0O!
0P!
0Q!
0R!
0S!
0T!
0U!
0V!
0W!
0X!
0Y!
0Z!
0[!
0\!
1]!
0^!
0_!
0`!
0a!
1b!
1c!
0d!
0e!
0f!
0g!
0h!
0i!
0j!
0k!
0l!
0m!
0n!
0o!
0p!
0q!
0r!
0s!
0t!
0u!
0v!
0w!
0x!
0y!
0z!
0{!
0|!
0}!
0~!
0!"
0""
0#"
0$"
0%"
0&"
0'"
0("
0)"
0*"
0+"
0,"
1-"
1."
0/"
10"
11"
02"
13"
14"
05"
06"
07"
08"
19"
1:"
0;"
1<"
0="
0>"
1?"
1@"
1A"
0B"
0C"
0D"
1E"
1F"
0G"
0H"
0I"
0J"
0K"
0L"
0M"
0N"
0O"
0P"
0Q"
0R"
0S"
0T"
1U"
1V"
0W"
0X"
0Y"
0Z"
0["
0\"
0]"
0^"
0_"
0`"
0a"
0b"
0c"
0d"
1e"
0f"
1g"
0h"
0i"
1j"
0k"
0l"
0m"
0n"
0o"
0p"
0q"
0r"
1s"
1t"
0u"
0v"
1w"
0x"
0y"
0z"
0%#
0$#
0##
0"#
0!#
0~"
0}"
0|"
0{"
0=#
0<#
0;#
0:#
09#
08#
07#
06#
05#
04#
03#
02#
01#
00#
0/#
0.#
0-#
0,#
0+#
0*#
0)#
0(#
0'#
0&#
0B#
0A#
0@#
0?#
0>#
0Z#
0Y#
0X#
0W#
0V#
0U#
0T#
0S#
0R#
0Q#
0P#
0O#
0N#
0M#
0L#
0K#
0J#
0I#
0H#
0G#
0F#
0E#
0D#
0C#
0b#
0a#
0`#
0_#
0^#
0]#
0\#
0[#
0f#
0e#
0d#
0c#
0v#
0u#
0t#
0s#
0r#
0q#
0p#
0o#
0n#
0m#
0l#
0k#
0j#
0i#
0h#
0g#
$end
#5000
1!
12
0'
13
1x"
10
1$
#10000
0!
02
1'
03
#15000
1!
12
0'
13
#20000
0!
02
1'
03
#25000
1!
12
0'
13
#30000
0!
02
1'
03
#35000
1!
12
0'
13
#40000
1"
0!
19
02
1:
1'
03
#45000
1!
12
0'
13
1[#
1\#
1G!
1e#
1r"
1C!
0z
1u
06
1N"
1G"
1B"
0-"
1q!
1Z!
0y
0w
14
1U!
0j"
0e"
1-"
1v
1n
0@
1=
1C"
1["
00"
0V"
1T"
1L"
0F"
0:"
18"
16"
1x
0["
10"
0x
1\"
0\"
#50000
0!
02
1'
03
#55000
1!
12
0'
13
1V!
1.
1T!
0$!
1#
#60000
0!
02
1'
03
#65000
1!
12
0'
13
1%#
1%!
0|
1&!
#70000
0!
02
1'
03
#75000
1!
12
0'
13
1$#
0%#
0'!
0%!
0&!
1|
1'!
1(!
1&!
0(!
#80000
0!
02
1'
03
#85000
1!
12
0'
13
1%#
1%!
0|
0'!
0&!
1(!
#90000
0!
02
1'
03
#95000
1!
12
0'
13
1##
0$#
0%#
1)!
1'!
0%!
0(!
1&!
1|
0)!
1*!
1(!
0&!
0*!
#100000
0!
02
1'
03
#105000
1!
12
0'
13
1%#
1%!
0|
1&!
#110000
0!
02
1'
03
#115000
1!
12
0'
13
1$#
0%#
0'!
0%!
0&!
1|
1)!
1'!
0(!
1&!
0)!
1*!
1(!
0*!
#120000
0!
02
1'
03
#125000
1!
12
0'
13
1%#
1!!
1%!
0|
0'!
0&!
1)!
0(!
1*!
#130000
0!
02
1'
03
#135000
1!
12
0'
13
1"#
0##
0$#
0%#
0+!
0)!
0!!
1'!
0%!
0*!
1(!
1&!
1|
1+!
1,!
1*!
0(!
0&!
0,!
#140000
0!
02
1'
03
#145000
1!
12
0'
13
1%#
1%!
0|
1&!
#150000
0!
02
1'
03
#155000
1!
12
0'
13
1$#
0%#
0'!
0%!
0&!
1|
1'!
1(!
1&!
0(!
#160000
0!
02
1'
03
#165000
1!
12
0'
13
1%#
1%!
0|
0'!
0&!
1(!
#170000
0!
02
1'
03
#175000
1!
12
0'
13
1##
0$#
0%#
1)!
1'!
0%!
0(!
1&!
1|
0+!
0)!
0*!
1(!
0&!
1+!
1,!
1*!
0,!
#180000
0!
02
1'
03
#185000
1!
12
0'
13
1%#
1%!
0|
1&!
#190000
0!
02
1'
03
#195000
1!
12
0'
13
1$#
0%#
0'!
0%!
0&!
1|
1)!
1'!
0(!
1&!
0+!
0)!
0*!
1(!
1+!
1,!
1*!
0,!
#200000
0!
02
1'
03
#205000
1!
12
0'
13
1%#
1!!
1%!
0|
0'!
0&!
1)!
0(!
0+!
0*!
1,!
#210000
0!
02
1'
03
#215000
1!
12
0'
13
1!#
0"#
0##
0$#
0%#
1-!
0!!
1+!
0)!
1'!
0%!
0,!
1*!
1(!
1&!
1|
0-!
1.!
1,!
0*!
0(!
0&!
0.!
#220000
0!
02
1'
03
#225000
1!
12
0'
13
1%#
1%!
0|
1&!
#230000
0!
02
1'
03
#235000
1!
12
0'
13
1$#
0%#
0'!
0%!
0&!
1|
1'!
1(!
1&!
0(!
#240000
0!
02
1'
03
#245000
1!
12
0'
13
1%#
1%!
0|
0'!
0&!
1(!
#250000
0!
02
1'
03
#255000
1!
12
0'
13
1##
0$#
0%#
1)!
1'!
0%!
0(!
1&!
1|
0)!
1*!
1(!
0&!
0*!
#260000
0!
02
1'
03
#265000
1!
12
0'
13
1%#
1%!
0|
1&!
#270000
0!
02
1'
03
#275000
1!
12
0'
13
1$#
0%#
0'!
0%!
0&!
1|
1)!
1'!
0(!
1&!
0)!
1*!
1(!
0*!
#280000
0!
02
1'
03
#285000
1!
12
0'
13
1%#
1%!
0|
0'!
0&!
1)!
0(!
1*!
#290000
0!
02
1'
03
#295000
1!
12
0'
13
1"#
0##
0$#
0%#
0+!
0)!
1'!
0%!
0*!
1(!
1&!
1|
1-!
1+!
0,!
1*!
0(!
0&!
0-!
1.!
1,!
0.!
#300000
0!
02
1'
03
#305000
1!
12
0'
13
1%#
1%!
0|
1&!
#310000
0!
02
1'
03
#315000
1!
12
0'
13
1$#
0%#
0'!
0%!
0&!
1|
1'!
1(!
1&!
0(!
#320000
0!
02
1'
03
#325000
1!
12
0'
13
1%#
1%!
0|
0'!
0&!
1(!
#330000
0!
02
1'
03
#335000
1!
12
0'
13
1##
0$#
0%#
1)!
1'!
0%!
0(!
1&!
1|
0+!
0)!
0*!
1(!
0&!
1-!
1+!
0,!
1*!
0-!
1.!
1,!
0.!
#340000
0!
02
1'
03
#345000
1!
12
0'
13
1%#
1%!
0|
1&!
#350000
0!
02
1'
03
#355000
1!
12
0'
13
1$#
0%#
0'!
0%!
0&!
1|
1)!
1'!
0(!
1&!
0+!
0)!
0*!
1(!
1-!
1+!
0,!
1*!
0-!
1.!
1,!
0.!
#360000
0!
02
1'
03
#365000
1!
12
0'
13
1%#
1%!
0|
0'!
0&!
1)!
0(!
0+!
0*!
1-!
0,!
1.!
#370000
0!
02
1'
03
#375000
1!
12
0'
13
1~"
0!#
0"#
0##
0$#
0%#
0/!
0-!
1+!
0)!
1'!
0%!
0.!
1,!
1*!
1(!
1&!
1|
1/!
10!
1.!
0,!
0*!
0(!
0&!
00!
#380000
0!
02
1'
03
#385000
1!
12
0'
13
1%#
1%!
0|
1&!
#390000
0!
02
1'
03
#395000
1!
12
0'
13
1$#
0%#
0'!
0%!
0&!
1|
1'!
1(!
1&!
0(!
#400000
0!
02
1'
03
#405000
1!
12
0'
13
1%#
1%!
0|
0'!
0&!
1(!
#410000
0!
02
1'
03
#415000
1!
12
0'
13
1##
0$#
0%#
1)!
1'!
0%!
0(!
1&!
1|
0)!
1*!
1(!
0&!
0*!
#420000
0!
02
1'
03
#425000
1!
12
0'
13
1%#
1%!
0|
1&!
#430000
0!
02
1'
03
#435000
1!
12
0'
13
1$#
0%#
0'!
0%!
0&!
1|
1)!
1'!
0(!
1&!
0)!
1*!
1(!
0*!
#440000
0!
02
1'
03
#445000
1!
12
0'
13
1%#
1!!
1%!
0|
0'!
0&!
1)!
0(!
1*!
#450000
0!
02
1'
03
#455000
1!
12
0'
13
1"#
0##
0$#
0%#
0+!
0)!
0!!
1'!
0%!
0*!
1(!
1&!
1|
1+!
1,!
1*!
0(!
0&!
0,!
#460000
0!
02
1'
03
#465000
1!
12
0'
13
1%#
1%!
0|
1&!
#470000
0!
02
1'
03
#475000
1!
12
0'
13
1$#
0%#
0'!
0%!
0&!
1|
1'!
1(!
1&!
0(!
#480000
0!
02
1'
03
#485000
1!
12
0'
13
1%#
1%!
0|
0'!
0&!
1(!
#490000
0!
02
1'
03
#495000
1!
12
0'
13
1##
0$#
0%#
1)!
1'!
0%!
0(!
1&!
1|
0+!
0)!
0*!
1(!
0&!
1+!
1,!
1*!
0,!
#500000
0!
02
1'
03
#505000
1!
12
0'
13
1%#
1%!
0|
1&!
#510000
0!
02
1'
03
#515000
1!
12
0'
13
1$#
0%#
0'!
0%!
0&!
1|
1)!
1'!
0(!
1&!
0+!
0)!
0*!
1(!
1+!
1,!
1*!
0,!
#520000
0!
02
1'
03
#525000
1!
12
0'
13
1%#
1!!
1%!
0|
0'!
0&!
1)!
0(!
0+!
0*!
1,!
#530000
0!
02
1'
03
#535000
1!
12
0'
13
1!#
0"#
0##
0$#
0%#
1-!
0!!
1+!
0)!
1'!
0%!
0,!
1*!
1(!
1&!
1|
0/!
0-!
0.!
1,!
0*!
0(!
0&!
1/!
10!
1.!
00!
#540000
0!
02
1'
03
#545000
1!
12
0'
13
1%#
1%!
0|
1&!
#550000
0!
02
1'
03
#555000
1!
12
0'
13
1$#
0%#
0'!
0%!
0&!
1|
1'!
1(!
1&!
0(!
#560000
0!
02
1'
03
#565000
1!
12
0'
13
1%#
1%!
0|
0'!
0&!
1(!
#570000
0!
02
1'
03
#575000
1!
12
0'
13
1##
0$#
0%#
1)!
1'!
0%!
0(!
1&!
1|
0)!
1*!
1(!
0&!
0*!
#580000
0!
02
1'
03
#585000
1!
12
0'
13
1%#
1%!
0|
1&!
#590000
0!
02
1'
03
#595000
1!
12
0'
13
1$#
0%#
0'!
0%!
0&!
1|
1)!
1'!
0(!
1&!
0)!
1*!
1(!
0*!
#600000
0!
02
1'
03
#605000
1!
12
0'
13
1%#
1%!
0|
0'!
0&!
1)!
0(!
1*!
#610000
0!
02
1'
03
#615000
1!
12
0'
13
1"#
0##
0$#
0%#
0+!
0)!
1'!
0%!
0*!
1(!
1&!
1|
1-!
1+!
0,!
1*!
0(!
0&!
0/!
0-!
0.!
1,!
1/!
10!
1.!
00!
#620000
0!
02
1'
03
#625000
1!
12
0'
13
1%#
1%!
0|
1&!
#630000
0!
02
1'
03
#635000
1!
12
0'
13
1$#
0%#
0'!
0%!
0&!
1|
1'!
1(!
1&!
0(!
#640000
0!
02
1'
03
#645000
1!
12
0'
13
1%#
1%!
0|
0'!
0&!
1(!
#650000
0!
02
1'
03
#655000
1!
12
0'
13
1##
0$#
0%#
1)!
1'!
0%!
0(!
1&!
1|
0+!
0)!
0*!
1(!
0&!
1-!
1+!
0,!
1*!
0/!
0-!
0.!
1,!
1/!
10!
1.!
00!
#660000
0!
02
1'
03
#665000
1!
12
0'
13
1%#
1%!
0|
1&!
#670000
0!
02
1'
03
#675000
1!
12
0'
13
1$#
0%#
0'!
0%!
0&!
1|
1)!
1'!
0(!
1&!
0+!
0)!
0*!
1(!
1-!
1+!
0,!
1*!
0/!
0-!
0.!
1,!
1/!
10!
1.!
00!
#680000
0!
02
1'
03
#685000
1!
12
0'
13
1%#
1%!
0|
0'!
0&!
1)!
0(!
0+!
0*!
1-!
0,!
0/!
0.!
10!
#690000
0!
02
1'
03
#695000
1!
12
0'
13
1}"
0~"
0!#
0"#
0##
0$#
0%#
11!
1/!
0-!
1+!
0)!
1'!
0%!
00!
1.!
1,!
1*!
1(!
1&!
1|
01!
12!
10!
0.!
0,!
0*!
0(!
0&!
02!
#700000
0!
02
1'
03
#705000
1!
12
0'
13
1%#
1%!
0|
1&!
#710000
0!
02
1'
03
#715000
1!
12
0'
13
1$#
0%#
0'!
0%!
0&!
1|
1'!
1(!
1&!
0(!
#720000
0!
02
1'
03
#725000
1!
12
0'
13
1%#
1%!
0|
0'!
0&!
1(!
#730000
0!
02
1'
03
#735000
1!
12
0'
13
1##
0$#
0%#
1)!
1'!
0%!
0(!
1&!
1|
0)!
1*!
1(!
0&!
0*!
#740000
0!
02
1'
03
#745000
1!
12
0'
13
1%#
1%!
0|
1&!
#750000
0!
02
1'
03
#755000
1!
12
0'
13
1$#
0%#
0'!
0%!
0&!
1|
1)!
1'!
0(!
1&!
0)!
1*!
1(!
0*!
#760000
0!
02
1'
03
#765000
1!
12
0'
13
1%#
1!!
1%!
0|
0'!
0&!
1)!
0(!
1*!
#770000
0!
02
1'
03
#775000
1!
12
0'
13
1"#
0##
0$#
0%#
0+!
0)!
0!!
1'!
0%!
0*!
1(!
1&!
1|
1+!
1,!
1*!
0(!
0&!
0,!
#780000
0!
02
1'
03
#785000
1!
12
0'
13
1%#
1%!
0|
1&!
#790000
0!
02
1'
03
#795000
1!
12
0'
13
1$#
0%#
0'!
0%!
0&!
1|
1'!
1(!
1&!
0(!
#800000
0!
02
1'
03
#805000
1!
12
0'
13
1%#
1%!
0|
0'!
0&!
1(!
#810000
0!
02
1'
03
#815000
1!
12
0'
13
1##
0$#
0%#
1)!
1'!
0%!
0(!
1&!
1|
0+!
0)!
0*!
1(!
0&!
1+!
1,!
1*!
0,!
#820000
0!
02
1'
03
#825000
1!
12
0'
13
1%#
1%!
0|
1&!
#830000
0!
02
1'
03
#835000
1!
12
0'
13
1$#
0%#
0'!
0%!
0&!
1|
1)!
1'!
0(!
1&!
0+!
0)!
0*!
1(!
1+!
1,!
1*!
0,!
